<?xml version="1.0" encoding="utf-8"?>
<!-- Generator: Adobe Illustrator 15.0.0, SVG Export Plug-In . SVG Version: 6.00 Build 0)  -->
<!DOCTYPE svg PUBLIC "-//W3C//DTD SVG 1.1//EN" "http://www.w3.org/Graphics/SVG/1.1/DTD/svg11.dtd">
<svg version="1.1" id="_x3F__x3F__x3F__x3F__1" xmlns="http://www.w3.org/2000/svg" xmlns:xlink="http://www.w3.org/1999/xlink"
	 x="0px" y="0px" width="36px" height="36px" viewBox="0 0 36 36" enable-background="new 0 0 36 36" xml:space="preserve">
<path id="FB_icon_copy" d="M32.219,2.017H3.781c-0.974,0-1.764,0.79-1.764,1.764v28.437c0,0.975,0.79,1.765,1.765,1.765h15.31
	V21.604h-4.167v-4.824h4.167v-3.559c0-4.13,2.521-6.378,6.2-6.378c1.242-0.004,2.485,0.06,3.722,0.19v4.315h-2.552
	c-2,0-2.389,0.952-2.389,2.349v3.08h4.778l-0.624,4.824h-4.154v12.38h8.145c0.975,0,1.765-0.789,1.766-1.764V3.78
	C33.981,2.806,33.192,2.017,32.219,2.017z"/>
</svg>
